…
### Code Summary

Subsets the data into variables of interests and creates a boxplot
between the two variables

``` r
#Subsetting the data to get the columns of interest
one <- "School Type in Eighth Grade" 
two <- "Reading Achievement in Eighth Grade"   
 
school_dataframe <- df[, c(one, two)]
school_dataframe
```

    ## # A tibble: 500 x 2
    ##    `School Type in Eighth Grade` `Reading Achievement in Eighth Grade`
    ##    <chr>                                                         <dbl>
    ##  1 Private, Religious                                             66.7
    ##  2 Private, Non-Religious                                         70.6
    ##  3 Public                                                         59.0
    ##  4 Private, Non-Religious                                         70.6
    ##  5 Private, Religious                                             56.7
    ##  6 Private, Religious                                             59.3
    ##  7 Public                                                         69.2
    ##  8 Private, Non-Religious                                         62.0
    ##  9 Private, Non-Religious                                         49.2
    ## 10 Private, Non-Religious                                         62.4
    ## # ... with 490 more rows
…
subset_er
```

    ## # A tibble: 477 x 6
    ##    Parents_Marital_Status `Math Achievement ~` `Science Achie~` `Social Studie~`
    ##    <chr>                                 <dbl>            <dbl>            <dbl>
    ##  1 Married                                75.0             73.7             71.9
    ##  2 Married                                53.2             56.1             57.9
    ##  3 Married                                67.2             58.2             68.2
    ##  4 Married                                53.6             46.5             57.8
    ##  5 Married                                66.1             51.2             60.8
    ##  6 Married                                71.8             74.6             55.2
    ##  7 Married                                74.2             68.0             59.3
    ##  8 Married                                51.0             45.2             43.9
    ##  9 Married                                61.5             68.0             61.2
    ## 10 Married                                65.8             53.4             49.7
    ## # ... with 467 more rows, and 2 more variables:
    ## #   `Reading Achievement in Eighth Grade` <dbl>, Average_Performance <dbl>
…
### Code Summary

Subsets the data into columns of interest and finds the difference in
science achievement between 8th and 12th grade, and plots the
differences according to urbanicity

``` r
#Subsets data into columns of interest
science_subset <- df%>%select(starts_with(c("Urbanicity", "Science Achievement in Eighth", "Science Achievement in Twelfth"))) 
science_subset
```

    ## # A tibble: 500 x 3
    ##    Urbanicity `Science Achievement in Eighth Grade` `Science Achievement in Tw~`
    ##    <chr>                                      <dbl>                        <dbl>
    ##  1 Suburban                                    75.2                         63.5
    ##  2 Urban                                       73.7                         69.4
    ##  3 Rural                                       56.1                         48.6
    ##  4 Suburban                                    58.2                         65.1
    ##  5 Suburban                                    46.5                         62.5
    ##  6 Urban                                       51.2                         56.7
    ##  7 Suburban                                    74.6                         69.8
    ##  8 Suburban                                    68.0                         61.0
    ##  9 Suburban                                    45.2                         56.2
    ## 10 Urban                                       68.0                         64.9
    ## # ... with 490 more rows
…
